{"totalHits":848,"currentPage":1,"totalPages":848,"pageList":[1,2,3,4,5,6,7,8,9,10],"foodSearchCriteria":{"query":"Oreo","generalSearchInput":"Oreo","pageNumber":1,"numberOfResultsPerPage":50,"pageSize":1,"requireAllWords":false},"foods":[{"fdcId":173304,"description":"McDONALD'S, McFLURRY with OREO cookies","commonNames":"","additionalDescriptions":"","dataType":"SR Legacy","ndbNumber":21339,"publishedDate":"2019-04-01","foodCategory":"Fast Foods","allHighlightFields":"","score":416.02045,"microbes":[],"foodNutrients":[{"nutrientId":1010,"nutrientName":"Sucrose","nutrientNumber":"210","unitName":"G","derivationCode":"RKA","derivationDescription":"Recipe; Known formulation; No adjustments applied, combination of source codes 1, 12, and/or 6.","derivationId":61,"value":14.2,"foodNutrientSourceId":1,"foodNutrientSourceCode":"1","foodNutrientSourceDescription":"Analytical or derived from analytical","rank":1600,"indentLevel":4,"foodNutrientId":1765662,"dataPoints":0},{"nutrientId":1011,"nutrientName":"Glucose","nutrientNumber":"211","unitName":"G","derivationCode":"RKA","derivationDescription":"Recipe; Known formulation; No adjustments applied, combination of source codes 1, 12, and/or 6.","derivationId":61,"value":0.89,"foodNutrientSourceId":1,"foodNutrientSourceCode":"1","foodNutrientSourceDescription":"Analytical or derived from analytical","rank":1700,"indentLevel":4,"foodNutrientId":1765663,"dataPoints":0},{"nutrientId":1014,"nutrientName":"Maltose","nutrientNumber":"214","unitName":"G","derivationCode":"RKA","derivationDescription":"Recipe; Known formulation; No adjustments applied, combination of source codes 1, 12, and/or 6.","derivationId":61,"value":0.28,"foodNutrientSourceId":1,"foodNutrientSourceCode":"1","foodNutrientSourceDescription":"Analytical or derived from analytical","rank":2000,"indentLevel":4,"foodNutrientId":1765664,"dataPoints":0},{"nutrientId":1051,"nutrientName":"Water","nutrientNumber":"255","unitName":"G","derivationCode":"RKA","derivationDescription":"Recipe; Known formulation; No adjustments applied, combination of source codes 1, 12, and/or 6.","derivationId":61,"value":63.9,"foodNutrientSourceId":1,"foodNutrientSourceCode":"1","foodNutrientSourceDescription":"Analytical or derived from analytical","rank":100,"indentLevel":1,"foodNutrientId":1765665,"dataPoints":0},{"nutrientId":2000,"nutrientName":"Total Sugars","nutrientNumber":"269","unitName":"G","derivationCode":"RKA","derivationDescription":"Recipe; Known formulation; No adjustments applied, combination of source codes 1, 12, and/or 6.","derivationId":61,"value":21.2,"foodNutrientSourceId":1,"foodNutrientSourceCode":"1","foodNutrientSourceDescription":"Analytical or derived from analytical","rank":1510,"indentLevel":3,"foodNutrientId":1765666,"dataPoints":0},{"nutrientId":1277,"nutrientName":"MUFA 20:1","nutrientNumber":"628","unitName":"G","derivationCode":"RKA","derivationDescription":"Recipe; Known formulation; No adjustments applied, combination of source codes 1, 12, and/or 6.","derivationId":61,"value":0.002,"foodNutrientSourceId":1,"foodNutrientSourceCode":"1","foodNutrientSourceDescription":"Analytical or derived from analytical","rank":12400,"indentLevel":2,"foodNutrientId":1765667,"dataPoints":0},{"nutrientId":1292,"nutrientName":"Fatty acids, total monounsaturated","nutrientNumber":"645","unitName":"G","derivationCode":"RKI","derivationDescription":"Recipe;Known formulation;No adjustments applied, combination of source codes which includes codes other than 1,12,or 6","derivationId":62,"value":1.72,"foodNutrientSourceId":4,"foodNutrientSourceCode":"6","foodNutrientSourceDescription":"Aggregated data involving combinations of source codes 1, 6, 12 and/or 13","rank":11400,"indentLevel":1,"foodNutrientId":1765668,"dataPoints":0},{"nutrientId":1293,"nutrientName":"Fatty acids, total polyunsaturated","nutrientNumber":"646","unitName":"G","derivationCode":"RKI","derivationDescription":"Recipe;Known formulation;No adjustments applied, combination of source codes which includes codes other than 1,12,or 6","derivationId":62,"value":0.364,"foodNutrientSourceId":4,"foodNutrientSourceCode":"6","foodNutrientSourceDescription":"Aggregated data involving combinations of source codes 1, 6, 12 and/or 13","rank":12900,"indentLevel":1,"foodNutrientId":1765669,"dataPoints":0},{"nutrientId":1299,"nutrientName":"SFA 15:0","nutrientNumber":"652","unitName":"G","derivationCode":"RKA","derivationDescription":"Recipe; Known formulation; No adjustments applied, combination of source codes 1, 12, and/or 6.","derivationId":61,"value":0.038,"foodNutrientSourceId":1,"foodNutrientSourceCode":"1","foodNutrientSourceDescription":"Analytical or derived from analytical","rank":10600,"indentLevel":2,"foodNutrientId":1765670,"dataPoints":0},{"nutrientId":1313,"nutrientName":"PUFA 20:2 n-6 c,c","nutrientNumber":"672","unitName":"G","derivationCode":"RKA","derivationDescription":"Recipe; Known formulation; No adjustments applied, combination of source codes 1, 12, and/or 6.","derivationId":61,"value":0.0,"foodNutrientSourceId":1,"foodNutrientSourceCode":"1","foodNutrientSourceDescription":"Analytical or derived from analytical","rank":14300,"indentLevel":2,"foodNutrientId":1765671,"dataPoints":0},{"nutrientId":1325,"nutrientName":"PUFA 20:3","nutrientNumber":"689","unitName":"G","derivationCode":"RKA","derivationDescription":"Recipe; Known formulation; No adjustments applied, combination of source codes 1, 12, and/or 6.","derivationId":61,"value":0.0,"foodNutrientSourceId":1,"foodNutrientSourceCode":"1","foodNutrientSourceDescription":"Analytical or derived from analytical","rank":14400,"indentLevel":2,"foodNutrientId":1765672,"dataPoints":0},{"nutrientId":1109,"nutrientName":"Vitamin E (alpha-tocopherol)","nutrientNumber":"323","unitName":"MG","derivationCode":"RKA","derivationDescription":"Recipe; Known formulation; No adjustments applied, combination of source codes 1, 12, and/or 6.","derivationId":61,"value":0.09,"foodNutrientSourceId":1,"foodNutrientSourceCode":"1","foodNutrientSourceDescription":"Analytical or derived from analytical","rank":7905,"indentLevel":1,"foodNutrientId":1765673,"dataPoints":0},{"nutrientId":1167,"nutrientName":"Niacin","nutrientNumber":"406","unitName":"MG","derivationCode":"RKA","derivationDescription":"Recipe; Known formulation; No adjustments applied, combination of source codes 1, 12, and/or 6.","derivationId":61,"value":0.264,"foodNutrientSourceId":1,"foodNutrientSourceCode":"1","foodNutrientSourceDescription":"Analytical or derived from analytical","rank":6600,"indentLevel":1,"foodNutrientId":1765674,"dataPoints":0},{"nutrientId":1170,"nutrientName":"Pantothenic acid","nutrientNumber":"410","unitName":"MG","derivationCode":"RKA","derivationDescription":"Recipe; Known formulation; No adjustments applied, combination of source codes 1, 12, and/or 6.","derivationId":61,"value":0.722,"foodNutrientSourceId":1,"foodNutrientSourceCode":"1","foodNutrientSourceDescription":"Analytical or derived from analytical","rank":6700,"indentLevel":1,"foodNutrientId":1765675,"dataPoints":0},{"nutrientId":1175,"nutrientName":"Vitamin B-6","nutrientNumber":"415","unitName":"MG","derivationCode":"RKA","derivationDescription":"Recipe; Known formulation; No adjustments applied, combination of source codes 1, 12, and/or 6.","derivationId":61,"value":0.058,"foodNutrientSourceId":1,"foodNutrientSourceCode":"1","foodNutrientSourceDescription":"Analytical or derived from analytical","rank":6800,"indentLevel":1,"foodNutrientId":1765676,"dataPoints":0},{"nutrientId":1262,"nutrientName":"SFA 10:0","nutrientNumber":"610","unitName":"G","derivationCode":"RKA","derivationDescription":"Recipe; Known formulation; No adjustments applied, combination of source codes 1, 12, and/or 6.","derivationId":61,"value":0.087,"foodNutrientSourceId":1,"foodNutrientSourceCode":"1","foodNutrientSourceDescription":"Analytical or derived from analytical","rank":10100,"indentLevel":2,"foodNutrientId":1765677,"dataPoints":0},{"nutrientId":1265,"nutrientName":"SFA 16:0","nutrientNumber":"613","unitName":"G","derivationCode":"RKA","derivationDescription":"Recipe; Known formulation; No adjustments applied, combination of source codes 1, 12, and/or 6.","derivationId":61,"value":1.25,"foodNutrientSourceId":1,"foodNutrientSourceCode":"1","foodNutrientSourceDescription":"Analytical or derived from analytical","rank":10700,"indentLevel":2,"foodNutrientId":1765678,"dataPoints":0},{"nutrientId":1266,"nutrientName":"SFA 18:0","nutrientNumber":"614","unitName":"G","derivationCode":"RKA","derivationDescription":"Recipe; Known formulation; No adjustments applied, combination of source codes 1, 12, and/or 6.","derivationId":61,"value":0.653,"foodNutrientSourceId":1,"foodNutrientSourceCode":"1","foodNutrientSourceDescription":"Analytical or derived from analytical","rank":10900,"indentLevel":2,"foodNutrientId":1765679,"dataPoints":0},{"nutrientId":1267,"nutrientName":"SFA 20:0","nutrientNumber":"615","unitName":"G","derivationCode":"RKA","derivationDescription":"Recipe; Known formulation; No adjustments applied, combination of source codes 1, 12, and/or 6.","derivationId":61,"value":0.01,"foodNutrientSourceId":1,"foodNutrientSourceCode":"1","foodNutrientSourceDescription":"Analytical or derived from analytical","rank":11100,"indentLevel":2,"foodNutrientId":1765680,"dataPoints":0},{"nutrientId":1268,"nutrientName":"MUFA 18:1","nutrientNumber":"617","unitName":"G","derivationCode":"RKA","derivationDescription":"Recipe; Known formulation; No adjustments applied, combination of source codes 1, 12, and/or 6.","derivationId":61,"value":1.64,"foodNutrientSourceId":1,"foodNutrientSourceCode":"1","foodNutrientSourceDescription":"Analytical or derived from analytical","rank":12100,"indentLevel":2,"foodNutrientId":1765681,"dataPoints":0},{"nutrientId":1269,"nutrientName":"PUFA 18:2","nutrientNumber":"618","unitName":"G","derivationCode":"RKA","derivationDescription":"Recipe; Known formulation; No adjustments applied, combination of source codes 1, 12, and/or 6.","derivationId":61,"value":0.339,"foodNutrientSourceId":1,"foodNutrientSourceCode":"1","foodNutrientSourceDescription":"Analytical or derived from analytical","rank":13100,"indentLevel":2,"foodNutrientId":1765682,"dataPoints":0},{"nutrientId":1270,"nutrientName":"PUFA 18:3","nutrientNumber":"619","unitName":"G","derivationCode":"RKA","derivationDescription":"Recipe; Known formulation; No adjustments applied, combination of source codes 1, 12, and/or 6.","derivationId":61,"value":0.02,"foodNutrientSourceId":1,"foodNutrientSourceCode":"1","foodNutrientSourceDescription":"Analytical or derived from analytical","rank":13900,"indentLevel":2,"foodNutrientId":1765683,"dataPoints":0},{"nutrientId":1271,"nutrientName":"PUFA 20:4","nutrientNumber":"620","unitName":"G","derivationCode":"RKA","derivationDescription":"Recipe; Known formulation; No adjustments applied, combination of source codes 1, 12, and/or 6.","derivationId":61,"value":0.005,"foodNutrientSourceId":1,"foodNutrientSourceCode":"1","foodNutrientSourceDescription":"Analytical or derived from analytical","rank":14700,"indentLevel":2,"foodNutrientId":1765684,"dataPoints":0},{"nutrientId":1004,"nutrientName":"Total lipid (fat)","nutrientNumber":"204","unitName":"G","derivationCode":"RKA","derivationDescription":"Recipe; Known formulation; No adjustments applied, combination of source codes 1, 12, and/or 6.","derivationId":61,"value":5.66,"foodNutrientSourceId":1,"foodNutrientSourceCode":"1","foodNutrientSourceDescription":"Analytical or derived from analytical","rank":800,"indentLevel":1,"foodNutrientId":1765685,"dataPoints":0},{"nutrientId":1005,"nutrientName":"Carbohydrate, by difference","nutrientNumber":"205","unitName":"G","derivationCode":"RKI","derivationDescription":"Recipe;Known formulation;No adjustments applied, combination of source codes which includes codes other than 1,12,or 6","derivationId":62,"value":25.6,"foodNutrientSourceId":4,"foodNutrientSourceCode":"6","foodNutrientSourceDescription":"Aggregated data involving combinations of source codes 1, 6, 12 and/or 13","rank":1110,"indentLevel":2,"foodNutrientId":1765686,"dataPoints":0},{"nutrientId":1087,"nutrientName":"Calcium, Ca","nutrientNumber":"301","unitName":"MG","derivationCode":"RKA","derivationDescription":"Recipe; Known formulation; No adjustments applied, combination of source codes 1, 12, and/or 6.","derivationId":61,"value":129,"foodNutrientSourceId":1,"foodNutrientSourceCode":"1","foodNutrientSourceDescription":"Analytical or derived from analytical","rank":5300,"indentLevel":1,"foodNutrientId":1765687,"dataPoints":0},{"nutrientId":1092,"nutrientName":"Potassium, K","nutrientNumber":"306","unitName":"MG","derivationCode":"RKA","derivationDescription":"Recipe; Known formulation; No adjustments applied, combination of source codes 1, 12, and/or 6.","derivationId":61,"value":198,"foodNutrientSourceId":1,"foodNutrientSourceCode":"1","foodNutrientSourceDescription":"Analytical or derived from analytical","rank":5700,"indentLevel":1,"foodNutrientId":1765688,"dataPoints":0},{"nutrientId":1095,"nutrientName":"Zinc, Zn","nutrientNumber":"309","unitName":"MG","derivationCode":"RKA","derivationDescription":"Recipe; Known formulation; No adjustments applied, combination of source codes 1, 12, and/or 6.","derivationId":61,"value":0.5,"foodNutrientSourceId":1,"foodNutrientSourceCode":"1","foodNutrientSourceDescription":"Analytical or derived from analytical","rank":5900,"indentLevel":1,"foodNutrientId":1765689,"dataPoints":0},{"nutrientId":1003,"nutrientName":"Protein","nutrientNumber":"203","unitName":"G","derivationCode":"RKA","derivationDescription":"Recipe; Known formulation; No adjustments applied, combination of source codes 1, 12, and/or 6.","derivationId":61,"value":3.97,"foodNutrientSourceId":1,"foodNutrientSourceCode":"1","foodNutrientSourceDescription":"Analytical or derived from analytical","rank":600,"indentLevel":1,"foodNutrientId":1765690,"dataPoints":0},{"nutrientId":1007,"nutrientName":"Ash","nutrientNumber":"207","unitName":"G","derivationCode":"RKA","derivationDescription":"Recipe; Known formulation; No adjustments applied, combination of source codes 1, 12, and/or 6.","derivationId":61,"value":0.92,"foodNutrientSourceId":1,"foodNutrientSourceCode":"1","foodNutrientSourceDescription":"Analytical or derived from analytical","rank":1000,"indentLevel":1,"foodNutrientId":1765691,"dataPoints":0},{"nutrientId":1012,"nutrientName":"Fructose","nutrientNumber":"212","unitName":"G","derivationCode":"RKA","derivationDescription":"Recipe; Known formulation; No adjustments applied, combination of source codes 1, 12, and/or 6.","derivationId":61,"value":0.18,"foodNutrientSourceId":1,"foodNutrientSourceCode":"1","foodNutrientSourceDescription":"Analytical or derived from analytical","rank":1800,"indentLevel":4,"foodNutrientId":1765692,"dataPoints":0},{"nutrientId":1013,"nutrientName":"Lactose","nutrientNumber":"213","unitName":"G","derivationCode":"RKA","derivationDescription":"Recipe; Known formulation; No adjustments applied, combination of source codes 1, 12, and/or 6.","derivationId":61,"value":5.62,"foodNutrientSourceId":1,"foodNutrientSourceCode":"1","foodNutrientSourceDescription":"Analytical or derived from analytical","rank":1900,"indentLevel":4,"foodNutrientId":1765693,"dataPoints":0},{"nutrientId":1075,"nutrientName":"Galactose","nutrientNumber":"287","unitName":"G","derivationCode":"RKA","derivationDescription":"Recipe; Known formulation; No adjustments applied, combination of source codes 1, 12, and/or 6.","derivationId":61,"value":0.0,"foodNutrientSourceId":1,"foodNutrientSourceCode":"1","foodNutrientSourceDescription":"Analytical or derived from analytical","rank":2100,"indentLevel":4,"foodNutrientId":1765694,"dataPoints":0},{"nutrientId":1275,"nutrientName":"MUFA 16:1","nutrientNumber":"626","unitName":"G","derivationCode":"RKA","derivationDescription":"Recipe; Known formulation; No adjustments applied, combination of source codes 1, 12, and/or 6.","derivationId":61,"value":0.042,"foodNutrientSourceId":1,"foodNutrientSourceCode":"1","foodNutrientSourceDescription":"Analytical or derived from analytical","rank":11700,"indentLevel":2,"foodNutrientId":1765695,"dataPoints":0},{"nutrientId":1300,"nutrientName":"SFA 17:0","nutrientNumber":"653","unitName":"G","derivationCode":"RKA","derivationDescription":"Recipe; Known formulation; No adjustments applied, combination of source codes 1, 12, and/or 6.","derivationId":61,"value":0.025,"foodNutrientSourceId":1,"foodNutrientSourceCode":"1","foodNutrientSourceDescription":"Analytical or derived from analytical","rank":10800,"indentLevel":2,"foodNutrientId":1765696,"dataPoints":0},{"nutrientId":1323,"nutrientName":"MUFA 17:1","nutrientNumber":"687","unitName":"G","derivationCode":"RKA","derivationDescription":"Recipe; Known formulation; No adjustments applied, combination of source codes 1, 12, and/or 6.","derivationId":61,"value":0.008,"foodNutrientSourceId":1,"foodNutrientSourceCode":"1","foodNutrientSourceDescription":"Analytical or derived from analytical","rank":12000,"indentLevel":2,"foodNutrientId":1765697,"dataPoints":0},{"nutrientId":1333,"nutrientName":"MUFA 15:1","nutrientNumber":"697","unitName":"G","derivationCode":"RKA","derivationDescription":"Recipe; Known formulation; No adjustments applied, combination of source codes 1, 12, and/or 6.","derivationId":61,"value":0.0,"foodNutrientSourceId":1,"foodNutrientSourceCode":"1","foodNutrientSourceDescription":"Analytical or derived from analytical","rank":11600,"indentLevel":2,"foodNutrientId":1765698,"dataPoints":0},{"nutrientId":1079,"nutrientName":"Fiber, total dietary","nutrientNumber":"291","unitName":"G","derivationCode":"RKA","derivationDescription":"Recipe; Known formulation; No adjustments applied, combination of source codes 1, 12, and/or 6.","derivationId":61,"value":0.1,"foodNutrientSourceId":1,"foodNutrientSourceCode":"1","foodNutrientSourceDescription":"Analytical or derived from analytical","rank":1200,"indentLevel":3,"foodNutrientId":1765699,"dataPoints":0},{"nutrientId":1089,"nutrientName":"Iron, Fe","nutrientNumber":"303","unitName":"MG","derivationCode":"RKA","derivationDescription":"Recipe; Known formulation; No adjustments applied, combination of source codes 1, 12, and/or 6.","derivationId":61,"value":0.61,"foodNutrientSourceId":1,"foodNutrientSourceCode":"1","foodNutrientSourceDescription":"Analytical or derived from analytical","rank":5400,"indentLevel":1,"foodNutrientId":1765700,"dataPoints":0},{"nutrientId":1090,"nutrientName":"Magnesium, Mg","nutrientNumber":"304","unitName":"MG","derivationCode":"RKA","derivationDescription":"Recipe; Known formulation; No adjustments applied, combination of source codes 1, 12, and/or 6.","derivationId":61,"value":14.0,"foodNutrientSourceId":1,"foodNutrientSourceCode":"1","foodNutrientSourceDescription":"Analytical or derived from analytical","rank":5500,"indentLevel":1,"foodNutrientId":1765701,"dataPoints":0},{"nutrientId":1091,"nutrientName":"Phosphorus, P","nutrientNumber":"305","unitName":"MG","derivationCode":"RKA","derivationDescription":"Recipe; Known formulation; No adjustments applied, combination of source codes 1, 12, and/or 6.","derivationId":61,"value":111,"foodNutrientSourceId":1,"foodNutrientSourceCode":"1","foodNutrientSourceDescription":"Analytical or derived from analytical","rank":5600,"indentLevel":1,"foodNutrientId":1765702,"dataPoints":0},{"nutrientId":1093,"nutrientName":"Sodium, Na","nutrientNumber":"307","unitName":"MG","derivationCode":"RKA","derivationDescription":"Recipe; Known formulation; No adjustments applied, combination of source codes 1, 12, and/or 6.","derivationId":61,"value":75.0,"foodNutrientSourceId":1,"foodNutrientSourceCode":"1","foodNutrientSourceDescription":"Analytical or derived from analytical","rank":5800,"indentLevel":1,"foodNutrientId":1765703,"dataPoints":0},{"nutrientId":1098,"nutrientName":"Copper, Cu","nutrientNumber":"312","unitName":"MG","derivationCode":"RKA","derivationDescription":"Recipe; Known formulation; No adjustments applied, combination of source codes 1, 12, and/or 6.","derivationId":61,"value":0.03,"foodNutrientSourceId":1,"foodNutrientSourceCode":"1","foodNutrientSourceDescription":"Analytical or derived from analytical","rank":6000,"indentLevel":1,"foodNutrientId":1765704,"dataPoints":0},{"nutrientId":1101,"nutrientName":"Manganese, Mn","nutrientNumber":"315","unitName":"MG","derivationCode":"RKA","derivationDescription":"Recipe; Known formulation; No adjustments applied, combination of source codes 1, 12, and/or 6.","derivationId":61,"value":0.042,"foodNutrientSourceId":1,"foodNutrientSourceCode":"1","foodNutrientSourceDescription":"Analytical or derived from analytical","rank":6100,"indentLevel":1,"foodNutrientId":1765705,"dataPoints":0},{"nutrientId":1104,"nutrientName":"Vitamin A, IU","nutrientNumber":"318","unitName":"IU","derivationCode":"RKA","derivationDescription":"Recipe; Known formulation; No adjustments applied, combination of source codes 1, 12, and/or 6.","derivationId":61,"value":323,"foodNutrientSourceId":1,"foodNutrientSourceCode":"1","foodNutrientSourceDescription":"Analytical or derived from analytical","rank":7500,"indentLevel":1,"foodNutrientId":1765706,"dataPoints":0},{"nutrientId":1165,"nutrientName":"Thiamin","nutrientNumber":"404","unitName":"MG","derivationCode":"RKA","derivationDescription":"Recipe; Known formulation; No adjustments applied, combination of source codes 1, 12, and/or 6.","derivationId":61,"value":0.048,"foodNutrientSourceId":1,"foodNutrientSourceCode":"1","foodNutrientSourceDescription":"Analytical or derived from analytical","rank":6400,"indentLevel":1,"foodNutrientId":1765707,"dataPoints":0},{"nutrientId":1166,"nutrientName":"Riboflavin","nutrientNumber":"405","unitName":"MG","derivationCode":"RKA","derivationDescription":"Recipe; Known formulation; No adjustments applied, combination of source codes 1, 12, and/or 6.","derivationId":61,"value":0.229,"foodNutrientSourceId":1,"foodNutrientSourceCode":"1","foodNutrientSourceDescription":"Analytical or derived from analytical","rank":6500,"indentLevel":1,"foodNutrientId":1765708,"dataPoints":0},{"nutrientId":1177,"nutrientName":"Folate, total","nutrientNumber":"417","unitName":"UG","derivationCode":"RKA","derivationDescription":"Recipe; Known formulation; No adjustments applied, combination of source codes 1, 12, and/or 6.","derivationId":61,"value":5.0,"foodNutrientSourceId":1,"foodNutrientSourceCode":"1","foodNutrientSourceDescription":"Analytical or derived from analytical","rank":6900,"indentLevel":1,"foodNutrientId":1765709,"dataPoints":0},{"nutrientId":1178,"nutrientName":"Vitamin B-12","nutrientNumber":"418","unitName":"UG","derivationCode":"RKA","derivationDescription":"Recipe; Known formulation; No adjustments applied, combination of source codes 1, 12, and/or 6.","derivationId":61,"value":0.58,"foodNutrientSourceId":1,"foodNutrientSourceCode":"1","foodNutrientSourceDescription":"Analytical or derived from analytical","rank":7300,"indentLevel":1,"foodNutrientId":1765710,"dataPoints":0},{"nutrientId":1187,"nutrientName":"Folate, food","nutrientNumber":"432","unitName":"UG","derivationCode":"RKA","derivationDescription":"Recipe; Known formulation; No adjustments applied, combination of source codes 1, 12, and/or 6.","derivationId":61,"value":5.0,"foodNutrientSourceId":1,"foodNutrientSourceCode":"1","foodNutrientSourceDescription":"Analytical or derived from analytical","rank":7100,"indentLevel":1,"foodNutrientId":1765711,"dataPoints":0},{"nutrientId":1253,"nutrientName":"Cholesterol","nutrientNumber":"601","unitName":"MG","derivationCode":"RKA","derivationDescription":"Recipe; Known formulation; No adjustments applied, combination of source codes 1, 12, and/or 6.","derivationId":61,"value":15.0,"foodNutrientSourceId":1,"foodNutrientSourceCode":"1","foodNutrientSourceDescription":"Analytical or derived from analytical","rank":15700,"indentLevel":1,"foodNutrientId":1765712,"dataPoints":0},{"nutrientId":1257,"nutrientName":"Fatty acids, total trans","nutrientNumber":"605","unitName":"G","derivationCode":"RKI","derivationDescription":"Recipe;Known formulation;No adjustments applied, combination of source codes which includes codes other than 1,12,or 6","derivationId":62,"value":0.565,"foodNutrientSourceId":4,"foodNutrientSourceCode":"6","foodNutrientSourceDescription":"Aggregated data involving combinations of source codes 1, 6, 12 and/or 13","rank":15400,"indentLevel":1,"foodNutrientId":1765713,"dataPoints":0},{"nutrientId":1258,"nutrientName":"Fatty acids, total saturated","nutrientNumber":"606","unitName":"G","derivationCode":"RKI","derivationDescription":"Recipe;Known formulation;No adjustments applied, combination of source codes which includes codes other than 1,12,or 6","derivationId":62,"value":2.58,"foodNutrientSourceId":4,"foodNutrientSourceCode":"6","foodNutrientSourceDescription":"Aggregated data involving combinations of source codes 1, 6, 12 and/or 13","rank":9700,"indentLevel":1,"foodNutrientId":1765714,"dataPoints":0},{"nutrientId":1261,"nutrientName":"SFA 8:0","nutrientNumber":"609","unitName":"G","derivationCode":"RKA","derivationDescription":"Recipe; Known formulation; No adjustments applied, combination of source codes 1, 12, and/or 6.","derivationId":61,"value":0.038,"foodNutrientSourceId":1,"foodNutrientSourceCode":"1","foodNutrientSourceDescription":"Analytical or derived from analytical","rank":10000,"indentLevel":2,"foodNutrientId":1765715,"dataPoints":0},{"nutrientId":1263,"nutrientName":"SFA 12:0","nutrientNumber":"611","unitName":"G","derivationCode":"RKA","derivationDescription":"Recipe; Known formulation; No adjustments applied, combination of source codes 1, 12, and/or 6.","derivationId":61,"value":0.102,"foodNutrientSourceId":1,"foodNutrientSourceCode":"1","foodNutrientSourceDescription":"Analytical or derived from analytical","rank":10300,"indentLevel":2,"foodNutrientId":1765716,"dataPoints":0},{"nutrientId":1264,"nutrientName":"SFA 14:0","nutrientNumber":"612","unitName":"G","derivationCode":"RKA","derivationDescription":"Recipe; Known formulation; No adjustments applied, combination of source codes 1, 12, and/or 6.","derivationId":61,"value":0.367,"foodNutrientSourceId":1,"foodNutrientSourceCode":"1","foodNutrientSourceDescription":"Analytical or derived from analytical","rank":10500,"indentLevel":2,"foodNutrientId":1765717,"dataPoints":0},{"nutrientId":1273,"nutrientName":"SFA 22:0","nutrientNumber":"624","unitName":"G","derivationCode":"RKA","derivationDescription":"Recipe; Known formulation; No adjustments applied, combination of source codes 1, 12, and/or 6.","derivationId":61,"value":0.003,"foodNutrientSourceId":1,"foodNutrientSourceCode":"1","foodNutrientSourceDescription":"Analytical or derived from analytical","rank":11200,"indentLevel":2,"foodNutrientId":1765718,"dataPoints":0},{"nutrientId":1274,"nutrientName":"MUFA 14:1","nutrientNumber":"625","unitName":"G","derivationCode":"RKA","derivationDescription":"Recipe; Known formulation; No adjustments applied, combination of source codes 1, 12, and/or 6.","derivationId":61,"value":0.025,"foodNutrientSourceId":1,"foodNutrientSourceCode":"1","foodNutrientSourceDescription":"Analytical or derived from analytical","rank":11500,"indentLevel":2,"foodNutrientId":1765719,"dataPoints":0},{"nutrientId":1008,"nutrientName":"Energy","nutrientNumber":"208","unitName":"KCAL","derivationCode":"MC","derivationDescription":"Manufacturer supplied; Calculated by manufacturer or unknown if analytical or calculated","derivationId":47,"value":165,"foodNutrientSourceId":7,"foodNutrientSourceCode":"9","foodNutrientSourceDescription":"Calculated by manufacturer, not adjusted or rounded for NLEA","rank":300,"indentLevel":1,"foodNutrientId":1765720,"dataPoints":0},{"nutrientId":1062,"nutrientName":"Energy","nutrientNumber":"268","unitName":"kJ","derivationCode":"MC","derivationDescription":"Manufacturer supplied; Calculated by manufacturer or unknown if analytical or calculated","derivationId":47,"value":690,"foodNutrientSourceId":7,"foodNutrientSourceCode":"9","foodNutrientSourceDescription":"Calculated by manufacturer, not adjusted or rounded for NLEA","rank":400,"indentLevel":1,"foodNutrientId":1765721,"dataPoints":0}],"finalFoodInputFoods":[],"foodMeasures":[],"foodAttributes":[],"foodAttributeTypes":[],"foodVersionIds":[]}],"aggregations":{"dataType":{"Branded":840,"Survey (FNDDS)":6,"SR Legacy":2},"nutrients":{}}}